W W W W W W W W W W W
W W W W W W W . . W W
W . . . . . . . . W W
W . . . . . . . . W W
W H . W W P . W . . W
W . W W W W . W W . W
W . . W W . . W . . W
W H . W W . B . . W W
W . . W W . B . . W W
W . . W W W . . . W W
W W W W W W W W W W W
