W W W W W W W W W W W W W W
W W W W W W W W W W . . W W
W . . . . . . . . . . . W W
W . . . B . . B . . . . W W
W . . W . W . . W P W . . W
W . W W . W . . W . W W . W
W . . W . W H . W . W . . W
W W . . . W . . W . . . W W
W W W . . W . . W . . . W W
W W . . H W . . W . B . W W
W . . W W . . . . W . . W W
W . . W W . . . . W . . W W
W . . W W W . . H W . . W W
W W W W W W W W W W W W W W
